{
	"info": {
		"_postman_id": "8a1c8101-abf0-43a8-96e0-466f2993213b",
		"name": "Notification",
		"schema": "https://schema.getpostman.com/json/collection/v2.1.0/collection.json"
	},
	"item": [
		{
			"name": "addFriendNotificationSenderToUser",
			"event": [
				{
					"listen": "test",
					"script": {
						"id": "6c749215-d5a5-4f89-ae8d-f0a1f63a5489",
						"exec": [
							"pm.test(\"Successful POST request\", function () {",
							"    pm.expect(pm.response.code).to.be.oneOf([201,202]);",
							"});"
						],
						"type": "text/javascript"
					}
				}
			],
			"request": {
				"method": "POST",
				"header": [],
				"url": {
					"raw": "{{NotificationURL}}/friend/{{receiverId}}",
					"host": [
						"{{NotificationURL}}"
					],
					"path": [
						"friend",
						"{{receiverId}}"
					]
				}
			},
			"response": []
		},
		{
			"name": "addLikeNotificationSenderToUser",
			"event": [
				{
					"listen": "test",
					"script": {
						"id": "891a63b0-a5aa-446e-91f1-e64948892adb",
						"exec": [
							"pm.test(\"Successful POST request\", function () {",
							"    pm.expect(pm.response.code).to.be.oneOf([201,202]);",
							"});"
						],
						"type": "text/javascript"
					}
				}
			],
			"request": {
				"method": "POST",
				"header": [],
				"url": {
					"raw": "{{NotificationURL}}/like/{{receiverId}}/{{postId}}",
					"host": [
						"{{NotificationURL}}"
					],
					"path": [
						"like",
						"{{receiverId}}",
						"{{postId}}"
					]
				}
			},
			"response": []
		},
		{
			"name": " addCommentNotificationFromSenderToUser",
			"event": [
				{
					"listen": "test",
					"script": {
						"id": "7bc348a0-5fcd-432b-9ddd-6b6af0dbb21d",
						"exec": [
							"pm.test(\"Successful POST request\", function () {",
							"    pm.expect(pm.response.code).to.be.oneOf([201,202]);",
							"});"
						],
						"type": "text/javascript"
					}
				}
			],
			"request": {
				"auth": {
					"type": "basic",
					"basic": [
						{
							"key": "username",
							"value": "test@test.com",
							"type": "string"
						},
						{
							"key": "password",
							"value": "12345",
							"type": "string"
						}
					]
				},
				"method": "POST",
				"header": [],
				"url": {
					"raw": "{{NotificationURL}}/comment/{{userId}}/{{postId}}",
					"host": [
						"{{NotificationURL}}"
					],
					"path": [
						"comment",
						"{{userId}}",
						"{{postId}}"
					]
				}
			},
			"response": []
		},
		{
			"name": "getAllNotificationsForUser",
			"event": [
				{
					"listen": "test",
					"script": {
						"id": "331583ce-a20b-4e80-977d-0f16b4553c38",
						"exec": [
							"pm.test(\"Status code is 200\", function () {",
							"    pm.response.to.have.status(200);",
							"});",
							"",
							"pm.test(\"Check if notifications is empty\", function () {",
							"    pm.expect('').to.be.empty;",
							"});"
						],
						"type": "text/javascript"
					}
				}
			],
			"request": {
				"method": "GET",
				"header": [],
				"url": {
					"raw": "{{NotificationURL}}",
					"host": [
						"{{NotificationURL}}"
					]
				}
			},
			"response": []
		},
		{
			"name": "deleteNotificationForFriendRequestReceiver",
			"event": [
				{
					"listen": "test",
					"script": {
						"id": "c72057fe-79ea-448d-aaca-40fce4e61738",
						"exec": [
							"pm.test(\"Status code is 204\", function () {",
							"    pm.response.to.have.status(204);",
							"});"
						],
						"type": "text/javascript"
					}
				}
			],
			"request": {
				"auth": {
					"type": "basic",
					"basic": [
						{
							"key": "username",
							"value": "test2@test.com",
							"type": "string"
						},
						{
							"key": "password",
							"value": "12345",
							"type": "string"
						}
					]
				},
				"method": "DELETE",
				"header": [],
				"url": {
					"raw": "{{NotificationURL}}/friend/receiver/{{userId}}",
					"host": [
						"{{NotificationURL}}"
					],
					"path": [
						"friend",
						"receiver",
						"{{userId}}"
					]
				}
			},
			"response": []
		}
	],
	"auth": {
		"type": "basic",
		"basic": [
			{
				"key": "password",
				"value": "12345",
				"type": "string"
			},
			{
				"key": "username",
				"value": "test@test.com",
				"type": "string"
			}
		]
	},
	"event": [
		{
			"listen": "prerequest",
			"script": {
				"id": "4830e3d4-8118-4de9-afbf-6e46d82ccbee",
				"type": "text/javascript",
				"exec": [
					""
				]
			}
		},
		{
			"listen": "test",
			"script": {
				"id": "e1a793d2-ef58-4509-86b8-0e0fdecab300",
				"type": "text/javascript",
				"exec": [
					""
				]
			}
		}
	],
	"protocolProfileBehavior": {}
}