{
	"info": {
		"_postman_id": "619289a3-3363-4fee-822b-50d4ae6aa763",
		"name": "User",
		"schema": "https://schema.getpostman.com/json/collection/v2.1.0/collection.json"
	},
	"item": [
		{
			"name": "getAllUsers",
			"event": [
				{
					"listen": "test",
					"script": {
						"id": "d591bff9-c5fa-4cf1-b7c0-c21a7cfedeea",
						"exec": [
							"pm.test(\"Status code is 200\", function () {",
							"    pm.response.to.have.status(200);",
							"});",
							"",
							"pm.test(\"Body contains First Name\", function () {",
							"    pm.expect(pm.response.text()).to.include(\"firstName\");",
							"});",
							"",
							"pm.test(\"Body contains Last Name\", function () {",
							"    pm.expect(pm.response.text()).to.include(\"lastName\");",
							"});"
						],
						"type": "text/javascript"
					}
				}
			],
			"request": {
				"method": "GET",
				"header": [],
				"url": {
					"raw": "{{UserURL}}",
					"host": [
						"{{UserURL}}"
					]
				}
			},
			"response": []
		},
		{
			"name": "getUserById",
			"event": [
				{
					"listen": "test",
					"script": {
						"id": "8745c29e-927a-4624-bc46-0b8dd52609fc",
						"exec": [
							"pm.test(\"Status code is 200\", function () {",
							"    pm.response.to.have.status(200);",
							"});",
							"",
							"pm.test(\"Body contains given userId\", function () {",
							"    var jsonData = pm.response.json();",
							"    pm.expect(jsonData.id).to.eql(1);",
							"});"
						],
						"type": "text/javascript"
					}
				}
			],
			"request": {
				"method": "GET",
				"header": [],
				"url": {
					"raw": "{{UserURL}}/{{userId}}",
					"host": [
						"{{UserURL}}"
					],
					"path": [
						"{{userId}}"
					]
				}
			},
			"response": []
		},
		{
			"name": " searchUserByName",
			"event": [
				{
					"listen": "test",
					"script": {
						"id": "dcfab609-0531-47b8-a3d3-9cd8f713ab31",
						"exec": [
							"pm.test(\"Status code is 200\", function () {",
							"    pm.response.to.have.status(200);",
							"});",
							"",
							"pm.test(\"Body contains the name\", function () {",
							"    pm.expect(pm.response.text()).to.include(\"Test\");",
							"});"
						],
						"type": "text/javascript"
					}
				}
			],
			"request": {
				"method": "GET",
				"header": [],
				"url": {
					"raw": "{{UserURL}}/search?name=Test",
					"host": [
						"{{UserURL}}"
					],
					"path": [
						"search"
					],
					"query": [
						{
							"key": "name",
							"value": "Test"
						}
					]
				}
			},
			"response": []
		}
	],
	"protocolProfileBehavior": {}
}